<svg xmlns="http://www.w3.org/2000/svg" width="64" height="13" viewBox="0 0 64 13">
    <path class="logo" fill="#343434" d="M13.905 12.144v-.98c0-.475.374-.847.834-.847h7.917c.47 0 .834.38.834.847v.982c0 .474-.374.846-.834.846h-7.917c-.47 0-.834-.38-.834-.848zm0-5.247v-.982c0-.474.37-.846.828-.846h7.14c.45 0 .827.379.827.846v.982c0 .475-.37.847-.827.847h-7.14c-.45 0-.828-.38-.828-.847zm.83-6.807h8.48c.457 0 .662.34.455.759l-.571 1.156c-.208.42-.747.76-1.205.76h-7.16c-.45 0-.829-.38-.829-.847V.936c0-.474.372-.846.83-.846zm15.252 12.903c-3.46-.537-5.142-2.647-5.142-6.452 0-3.884 1.873-6.451 5.639-6.451h4.782c.46 0 .67.346.476.773l-.511 1.128c-.192.424-.72.773-1.176.773H30.8c-1.809 0-2.743 1.26-2.778 3.745.017 2.527.845 3.808 2.46 3.808h4.801c.462 0 .831.38.831.847v.982c0 .474-.37.846-.826.846h-5.302zM.754 4.337v-.363C.754 1.694 1.936.09 4.044.09h7.003c.446 0 .666.346.472.773l-.511 1.128c-.192.424-.722.773-1.18.773H5.702c-.458 0-.885.003-.954.007-.645.065-1.132.616-1.132 1.28 0 .71.564 1.287 1.258 1.287h.976c.886 0 2.053.002 2.58.013 2.037.044 3.354 1.375 3.354 3.39v.364c0 2.312-1.102 3.888-3.298 3.887H1.512c-.46 0-.682-.346-.492-.774l.501-1.127c.189-.424.714-.774 1.17-.774l5.032-.003c.664-.04 1.184-.604 1.184-1.283 0-.709-.562-1.285-1.267-1.287 0 0-1.301.005-2.359.005-.614 0-1.021-.002-1.21-.005C2.087 7.708.754 6.339.754 4.337zM38.624.09h5c3.943.076 5.658 2.404 5.658 6.451s-1.611 6.451-5.135 6.451h-5.25c-.462 0-.834-.38-.834-.848v-6.23c0-.466.373-.848.832-.848h1.213c.456 0 .832.382.832.854v4.322c0 .042.033.076.074.076h2.617c1.624 0 2.452-1.284 2.46-3.816-.025-2.48-1.024-3.737-2.968-3.737h-3.277c-.453 0-.99-.347-1.186-.774L38.143.864c-.194-.424.02-.774.482-.774zm12.088 6.451c0-4.28 2.117-6.451 6.292-6.451 4.116 0 6.292 2.23 6.292 6.451 0 4.22-2.176 6.451-6.292 6.451-4.057 0-6.292-2.29-6.292-6.45zm3.242 0c0 2.547 1.039 3.839 3.089 3.839 2.165 0 3.09-1.148 3.09-3.839 0-2.51-1.069-3.838-3.09-3.838-2.108 0-3.09 1.22-3.09 3.838z"/>
</svg>
